Starting new HTTPS connection (1): ap2.salesforce.com
Starting new HTTPS connection (1): ap2.salesforce.com
Starting new HTTPS connection (1): ap2.salesforce.com
Starting new HTTPS connection (1): ap2.salesforce.com
Starting new HTTPS connection (1): ap2.salesforce.com
Starting new HTTPS connection (1): ap2.salesforce.com
Starting new HTTPS connection (1): ap2.salesforce.com
Starting new HTTPS connection (1): ap2.salesforce.com
Starting new HTTPS connection (1): ap2.salesforce.com
Starting new HTTPS connection (1): ap2.salesforce.com
Starting new HTTPS connection (1): ap2.salesforce.com
Starting new HTTPS connection (1): ap2.salesforce.com
Starting new HTTPS connection (1): ap2.salesforce.com
Starting new HTTPS connection (1): ap2.salesforce.com
Starting new HTTPS connection (1): ap2.salesforce.com
Starting new HTTPS connection (1): ap2.salesforce.com
Starting new HTTPS connection (1): ap2.salesforce.com
Starting new HTTPS connection (1): ap2.salesforce.com
Starting new HTTPS connection (1): ap2.salesforce.com
Starting new HTTPS connection (1): ap2.salesforce.com
Starting new HTTPS connection (1): ap2.salesforce.com
Starting new HTTPS connection (1): ap2.salesforce.com
Starting new HTTPS connection (1): ap2.salesforce.com
Starting new HTTPS connection (1): ap2.salesforce.com
Starting new HTTPS connection (1): ap2.salesforce.com
Starting new HTTPS connection (1): ap2.salesforce.com
Starting new HTTPS connection (1): ap2.salesforce.com
Starting new HTTPS connection (1): ap2.salesforce.com
Starting new HTTPS connection (1): ap2.salesforce.com
Starting new HTTPS connection (1): ap2.salesforce.com
Starting new HTTPS connection (1): ap2.salesforce.com
Starting new HTTPS connection (1): ap2.salesforce.com
Starting new HTTPS connection (1): ap2.salesforce.com
Starting new HTTPS connection (1): ap2.salesforce.com
Starting new HTTPS connection (1): ap2.salesforce.com
Starting new HTTPS connection (1): ap2.salesforce.com
Starting new HTTPS connection (1): ap2.salesforce.com
Starting new HTTPS connection (1): ap2.salesforce.com
Starting new HTTPS connection (1): ap2.salesforce.com
Starting new HTTPS connection (1): ap2.salesforce.com
Starting new HTTPS connection (1): ap2.salesforce.com
Starting new HTTPS connection (1): ap2.salesforce.com
Starting new HTTPS connection (1): ap2.salesforce.com
Starting new HTTPS connection (1): ap2.salesforce.com
Starting new HTTPS connection (1): ap2.salesforce.com
Starting new HTTPS connection (1): ap2.salesforce.com
Starting new HTTPS connection (1): ap2.salesforce.com
Starting new HTTPS connection (1): ap2.salesforce.com
Starting new HTTPS connection (1): ap2.salesforce.com
Starting new HTTPS connection (1): ap2.salesforce.com
Starting new HTTPS connection (1): ap2.salesforce.com
Starting new HTTPS connection (1): ap2.salesforce.com
Starting new HTTPS connection (1): ap2.salesforce.com
Starting new HTTPS connection (1): ap2.salesforce.com
Starting new HTTPS connection (1): ap2.salesforce.com
Starting new HTTPS connection (1): ap2.salesforce.com
Starting new HTTPS connection (1): ap2.salesforce.com
Starting new HTTPS connection (1): ap2.salesforce.com
Starting new HTTPS connection (1): ap2.salesforce.com
Starting new HTTPS connection (1): ap2.salesforce.com
Starting new HTTPS connection (1): ap2.salesforce.com
Starting new HTTPS connection (1): ap2.salesforce.com
Starting new HTTPS connection (1): ap2.salesforce.com
Starting new HTTPS connection (1): ap2.salesforce.com
Starting new HTTPS connection (1): ap2.salesforce.com
Starting new HTTPS connection (1): ap2.salesforce.com
Starting new HTTPS connection (1): ap2.salesforce.com
Starting new HTTPS connection (1): ap2.salesforce.com
Starting new HTTPS connection (1): ap2.salesforce.com
Starting new HTTPS connection (1): ap2.salesforce.com
Starting new HTTPS connection (1): ap2.salesforce.com
Starting new HTTPS connection (1): ap2.salesforce.com
Starting new HTTPS connection (1): ap2.salesforce.com
Starting new HTTPS connection (1): ap2.salesforce.com
Starting new HTTPS connection (1): ap2.salesforce.com
Starting new HTTPS connection (1): ap2.salesforce.com
Starting new HTTPS connection (1): ap2.salesforce.com
Starting new HTTPS connection (1): ap2.salesforce.com
Starting new HTTPS connection (1): ap2.salesforce.com
Starting new HTTPS connection (1): ap2.salesforce.com
Starting new HTTPS connection (1): ap2.salesforce.com
Starting new HTTPS connection (1): ap2.salesforce.com
Starting new HTTPS connection (1): ap2.salesforce.com
Starting new HTTPS connection (1): ap2.salesforce.com
Starting new HTTPS connection (1): ap2.salesforce.com
Starting new HTTPS connection (1): ap2.salesforce.com
Starting new HTTPS connection (1): ap2.salesforce.com
Starting new HTTPS connection (1): ap2.salesforce.com
Starting new HTTPS connection (1): ap2.salesforce.com
Starting new HTTPS connection (1): ap2.salesforce.com
Starting new HTTPS connection (1): ap2.salesforce.com
Starting new HTTPS connection (1): ap2.salesforce.com
Starting new HTTPS connection (1): ap2.salesforce.com
Starting new HTTPS connection (1): ap2.salesforce.com
Starting new HTTPS connection (1): ap2.salesforce.com
Starting new HTTPS connection (1): ap2.salesforce.com
Starting new HTTPS connection (1): ap2.salesforce.com
Starting new HTTPS connection (1): ap2.salesforce.com
Starting new HTTPS connection (1): ap2.salesforce.com
Starting new HTTPS connection (1): ap2.salesforce.com
Starting new HTTPS connection (1): ap2.salesforce.com
Starting new HTTPS connection (1): ap2.salesforce.com
Starting new HTTPS connection (1): ap2.salesforce.com
Starting new HTTPS connection (1): ap2.salesforce.com
Starting new HTTPS connection (1): ap2.salesforce.com
Starting new HTTPS connection (1): ap2.salesforce.com
Starting new HTTPS connection (1): ap2.salesforce.com
Starting new HTTPS connection (1): ap2.salesforce.com
Starting new HTTPS connection (1): ap2.salesforce.com
Starting new HTTPS connection (1): ap2.salesforce.com
Starting new HTTPS connection (1): ap2.salesforce.com
Starting new HTTPS connection (1): ap2.salesforce.com
Starting new HTTPS connection (1): ap2.salesforce.com
Starting new HTTPS connection (1): ap2.salesforce.com
Starting new HTTPS connection (1): ap2.salesforce.com
Starting new HTTPS connection (1): ap2.salesforce.com
Starting new HTTPS connection (1): ap2.salesforce.com
Starting new HTTPS connection (1): ap2.salesforce.com
Starting new HTTPS connection (1): ap2.salesforce.com
Starting new HTTPS connection (1): ap2.salesforce.com
Starting new HTTPS connection (1): ap2.salesforce.com
Starting new HTTPS connection (1): ap2.salesforce.com
Starting new HTTPS connection (1): ap2.salesforce.com
Starting new HTTPS connection (1): ap2.salesforce.com
Starting new HTTPS connection (1): ap2.salesforce.com
Starting new HTTPS connection (1): ap2.salesforce.com
Starting new HTTPS connection (1): ap2.salesforce.com
Starting new HTTPS connection (1): ap2.salesforce.com
Starting new HTTPS connection (1): ap2.salesforce.com
Starting new HTTPS connection (1): ap2.salesforce.com
Starting new HTTPS connection (1): ap2.salesforce.com
Starting new HTTPS connection (1): ap2.salesforce.com
Starting new HTTPS connection (1): ap2.salesforce.com
Starting new HTTPS connection (1): ap2.salesforce.com
Starting new HTTPS connection (1): ap2.salesforce.com
Starting new HTTPS connection (1): ap2.salesforce.com
Starting new HTTPS connection (1): ap2.salesforce.com
Starting new HTTPS connection (1): ap2.salesforce.com
Starting new HTTPS connection (1): ap2.salesforce.com
Starting new HTTPS connection (1): ap2.salesforce.com
Starting new HTTPS connection (1): ap2.salesforce.com
Starting new HTTPS connection (1): ap2.salesforce.com
Starting new HTTPS connection (1): ap2.salesforce.com
Starting new HTTPS connection (1): ap2.salesforce.com
Starting new HTTPS connection (1): ap2.salesforce.com
Starting new HTTPS connection (1): ap2.salesforce.com
Starting new HTTPS connection (1): ap2.salesforce.com
Starting new HTTPS connection (1): ap2.salesforce.com
Starting new HTTPS connection (1): ap2.salesforce.com
Starting new HTTPS connection (1): ap2.salesforce.com
Starting new HTTPS connection (1): ap2.salesforce.com
Starting new HTTPS connection (1): ap2.salesforce.com
Starting new HTTPS connection (1): ap2.salesforce.com
Starting new HTTPS connection (1): ap2.salesforce.com
Starting new HTTPS connection (1): ap2.salesforce.com
Starting new HTTPS connection (1): ap2.salesforce.com
<?xml version="1.0" encoding="UTF-8"?>
<SOAP-ENV:Envelope xmlns:ns0="urn:partner.soap.sforce.com" xmlns:ns1="http://schemas.xmlsoap.org/soap/envelope/" xmlns:xsi="http://www.w3.org/2001/XMLSchema-instance" xmlns:tns="urn:partner.soap.sforce.com" xmlns:SOAP-ENV="http://schemas.xmlsoap.org/soap/envelope/">
   <SOAP-ENV:Header>
      <tns:SessionHeader>
         <tns:sessionId>00D28000000fDqd!ARAAQIdz1TCdBMc8t_DWNU5o84O8PJHdJIs3U0kPhvknjHY7ccqV0LqwYovvPXX0Jkf6ZNCEej2dvWrtxmVwOwQ4zS.flgcz</tns:sessionId>
      </tns:SessionHeader>
   </SOAP-ENV:Header>
   <ns1:Body>
      <ns0:getUserInfo/>
   </ns1:Body>
</SOAP-ENV:Envelope>
Starting new HTTPS connection (1): ap2.salesforce.com
Starting new HTTPS connection (1): ap2.salesforce.com
Starting new HTTPS connection (1): ap2.salesforce.com
Starting new HTTPS connection (1): ap2.salesforce.com
Starting new HTTPS connection (1): ap2.salesforce.com
Starting new HTTPS connection (1): ap2.salesforce.com
Starting new HTTPS connection (1): ap2.salesforce.com
Starting new HTTPS connection (1): ap2.salesforce.com
<?xml version="1.0" encoding="UTF-8"?>
<SOAP-ENV:Envelope xmlns:ns0="urn:partner.soap.sforce.com" xmlns:ns1="http://schemas.xmlsoap.org/soap/envelope/" xmlns:xsi="http://www.w3.org/2001/XMLSchema-instance" xmlns:tns="urn:partner.soap.sforce.com" xmlns:SOAP-ENV="http://schemas.xmlsoap.org/soap/envelope/">
   <SOAP-ENV:Header>
      <tns:SessionHeader>
         <tns:sessionId>00D28000000fDqd!ARAAQAauUWqyepT.OSyU6Ch7vBBq9jmu9LQaEMQ4XnEHwjvtWQEYVTvx29h.bAO8zx5VhK6w2Cqzgb2eXAisZ4Q4OEcgMxa0</tns:sessionId>
      </tns:SessionHeader>
   </SOAP-ENV:Header>
   <ns1:Body>
      <ns0:getUserInfo/>
   </ns1:Body>
</SOAP-ENV:Envelope>
Starting new HTTPS connection (1): ap2.salesforce.com
